Tidyverse Curie
…
source("importation neorep.R")
curie <- as_tibble(curie) 

Tibble

print(curie, n =10)

## # A tibble: 1,199 x 136
##       datexam  tuicc tclin  nuicc     datdeb typana typanac   chir
##        <date> <fctr> <int> <fctr>     <date> <fctr>  <fctr> <fctr>
##  1 2007-11-15      2    20      0 2007-11-15      1              1
##  2 2006-05-24      2    40      0 2006-05-31      1              1
##  3 2006-05-02      2    30      2 2006-04-14      1              1
##  4 2006-12-21      2    45      0 2006-12-27      1              1
##  5 2006-03-29      2    50      0 2006-04-07      1              1
##  6 2005-12-22      2    40      1 2005-12-29      1              1
##  7 2009-08-18      1    15      0 2008-08-18      1              1
##  8 2010-11-29      2    50      1 2010-12-06      1              1
##  9 2010-11-12      2    30      1 2010-11-15      1              1
## 10 2010-12-06      3    55      1 2010-12-06      1              1
## # ... with 1,189 more rows, and 128 more variables: datchir <date>,
## #   typchir <fctr>, plachir <fctr>, typax <fctr>, ggprel <int>,
## #   ggenv <int>, ggfib <int>, marges <fctr>, enva <fctr>, sain <int>,
## #   tailh <int>, tailp <int>, rth <fctr>, rtdeb <date>, rtfin <date>,
## #   hormo <fctr>, dathor <date>, typhor <fctr>, finhor <date>,
## #   adjdebc <date>, adjfin.q1 <date>, adjfin.q2 <date>, adjnbc <int>,
## #   adjarc <fctr>, adjaraut <fctr>, adjch <fctr>, adjfinc <date>,
## #   adjar.q1 <fctr>, adjar.q2 <fctr>, adjarcl <fctr>, heradj <fctr>,
## #   debher <date>, finher <date>, dader <date>, etader <fctr>,
…
glance() : permet de rcuperer les statistiques dun modles

tidy() : rcupre les statistiques des coefficients

package purrr :

map() : equivalent de lapply

map(x, f) o x est un vecteur et f une fonction

minicurie <- curie[,c(76:80, 136, 137)]
minicurie

## # A tibble: 1,199 x 7
##       CPS neobioscore_grade_EE CPS_EG_grade_EE neobioscore_grade_nucleaire
##    <fctr>               <fctr>          <fctr>                      <fctr>
##  1      0                    2               2                           2
##  2      0                    1               1                           1
##  3      2                    2               2                           2
##  4      0                    2               2                           2
##  5      1                    2               2                           2
##  6      1                    1               1                           1
##  7      0                    2               2                           2
##  8      1                    3               3                           3
##  9      1                    1               1                           1
## 10      1                    3               3                           3
## # ... with 1,189 more rows, and 3 more variables:
## #   CPS_EG_grade_nucleaire <fctr>, pCRmod <fctr>, chirggl <fctr>
…
